{
    "parameterSets": {
        "wjc-garage-v3": {
            "PIR_dome_cutout_is_round": "true",
            "PIR_dome_radius": "12.1",
            "PIR_long_side_length": "11.52",
            "PIR_short_side_length": "11.56",
            "bottom_floor_thickness": "1",
            "case_inside_height_bottom": "23",
            "case_inside_height_top": "30",
            "case_inside_long_side_length": "51",
            "case_inside_short_side_length": "57",
            "center_standoff_height": "1.5",
            "center_standoff_size": "3",
            "coin_notch_depth": "1",
            "coin_notch_height": "1.53",
            "coin_notch_length": "10",
            "coin_notch_on_far_long_side": "true",
            "coin_notch_on_far_short_side": "true",
            "coin_notch_on_near_long_side": "true",
            "coin_notch_on_near_short_side": "true",
            "cord_cutout_height": "4",
            "cord_cutout_is_semicircle": "true",
            "cord_cutout_radius": "18",
            "cord_cutout_width": "6",
            "corner_standoff_height": "2",
            "corner_standoff_size": "3",
            "ear_height": "2",
            "ear_length": "18",
            "ear_slot_case_offset": "2",
            "ear_slot_length": "5",
            "ear_slot_width": "4.2",
            "ear_width": "13",
            "edge_clamp_height": "7",
            "edge_clamp_width": "4",
            "floor_cutout_long_edge": "51",
            "floor_cutout_short_edge": "57",
            "floor_floor_cutout": "true",
            "lip_corner_trim": "0",
            "lip_delta": "0",
            "lip_height": "4",
            "lip_thickness": "1.1",
            "make_cord_cutout": "B",
            "make_inside_screw_holes": "false",
            "make_jumper_cutout": "true",
            "outside_corner_radius": "2",
            "pcb_long_side_length": "32.42",
            "pcb_short_side_length": "24.25",
            "render_gap": "10",
            "screw_hole_case_offset": "2",
            "screw_hole_radius": "3",
            "smooth_curviness": "25",
            "top_ceiling_thickness": "1",
            "use_lip_to_join_case_halves": "true",
            "wall_thickness": "3",
            "what_to_render": "BT",
            "which_PCB_edge_clamps_to_use": "L",
            "which_PCB_standoffs_to_use": "0",
            "which_case_mounting_ears_have_screw_slots": "BT",
            "which_case_mounting_ears_to_use": "B"
        },
        "wjc-stairs01": {
            "PIR_dome_cutout_is_round": "true",
            "PIR_dome_radius": "11.5",
            "PIR_long_side_length": "11.52",
            "PIR_short_side_length": "11.56",
            "bottom_floor_thickness": "1",
            "case_inside_height_bottom": "10",
            "case_inside_height_top": "8",
            "case_inside_long_side_length": "40",
            "case_inside_short_side_length": "24.3",
            "center_standoff_height": "2",
            "center_standoff_size": "3",
            "coin_notch_depth": "1",
            "coin_notch_height": "1.53",
            "coin_notch_length": "10",
            "coin_notch_on_far_long_side": "true",
            "coin_notch_on_far_short_side": "true",
            "coin_notch_on_near_long_side": "true",
            "coin_notch_on_near_short_side": "true",
            "cord_cutout_height": "4",
            "cord_cutout_is_semicircle": "false",
            "cord_cutout_radius": "7",
            "cord_cutout_width": "8.5",
            "corner_standoff_height": "2",
            "corner_standoff_size": "3",
            "ear_height": "2",
            "ear_length": "18",
            "ear_slot_case_offset": "1",
            "ear_slot_length": "5",
            "ear_slot_width": "3",
            "ear_width": "6",
            "edge_clamp_height": "6.5",
            "edge_clamp_width": "4",
            "floor_cutout_long_edge": "22",
            "floor_cutout_short_edge": "24.3",
            "floor_floor_cutout": "true",
            "lip_corner_trim": "0",
            "lip_delta": "0",
            "lip_height": "2",
            "lip_thickness": "1",
            "make_cord_cutout": "B",
            "make_inside_screw_holes": "true",
            "make_jumper_cutout": "false",
            "outside_corner_radius": "3",
            "pcb_long_side_length": "32.5",
            "pcb_short_side_length": "24.25",
            "render_gap": "10",
            "screw_hole_case_offset": "2",
            "screw_hole_radius": "2.5",
            "smooth_curviness": "25",
            "top_ceiling_thickness": "1",
            "use_lip_to_join_case_halves": "true",
            "wall_thickness": "2",
            "what_to_render": "BT",
            "which_PCB_edge_clamps_to_use": "S",
            "which_PCB_standoffs_to_use": "LX",
            "which_case_mounting_ears_have_screw_slots": "BT",
            "which_case_mounting_ears_to_use": "0"
        }
    },
    "fileFormatVersion": "1",
    "parameterSets": "",
    "parameterSets": ""
}
